tweet,class
Reminder: Office hours going on today from 12- 2 @HVAFofIndiana! If you need help w/ a federal agency stop by and s… https://t.co/sMKoOBASPu,L
RT @JonJosephKYGOP: Great seeing @KYComer at tonight's Taylor County Republican Women's Club Lincoln Dinner. A true public servant. http://…,C
...”bless the efforts of those who spare no effort to promote justice and reconciliation and to overcome the variou… https://t.co/lYwBenIC9F,L